**DIRAC
.TITLE
 UF6-
.ANALYZE
**HAMILTONIAN
.ECP
**ANALYZE
.PROJEC
*PROJEC
.OWNBAS
.VECPRJ
1..50
.VECREF
7
AFUXXX
1
1..26
AFF1XX
1
1..5
AFF2XX
1
1..5
AFF3XX
1
1..5
AFF4XX
1
1..5
AFF5XX
1
1..5
AFF6XX
1
1..5
**INTEGRALS
*READIN
.UNCONTRACT
**WAVE FUNCTION
.SCF
*SCF
.CLOSED SHELL
86
.MAXITR
75
**MOLECULE
*SYMMETRY
.NOSYM
*BASIS
.SPECIAL
F BASIS aug-cc-pVDZ
.DEFAULT
cc-pVDZ-PP
ECPLIB ECP60MDF
*END OF
