  Initialized reading from MRCONEE
  Core energy:    2.30880226922284     
  Breit interaction:  F
  Group type (1:real, 2:complex, 4:quaternion) :                     1
  Initialized reading from MDCINT
  MDCINT created:   6Jul19    19:03:31
  Writing fcidump interface file ...
  fcidump file ready
