**DIRAC
.PROPERTIES
**INTEGRALS
*READIN
.UNCONT
**WAVE FUNCTION
.SCF
*SCF
.CLOSED SHELL
6 6
**GRID
.ULTRAFINE
**PROPERTIES
*EXPECTATION VALUES
.ORBANA
.OPERATOR
 'XXSECMOM'
.OPERATOR
 'YYSECMOM'
.OPERATOR
 'ZZSECMOM'
**VISUAL
.EDIPZ
 PAMXVC 1
.RADIAL
0.0D0 0.0D0 0.0D0
10.0
500
.3D_INT
**MOLECULE
*BASIS
.DEFAULT
dyall.ae2z
**END OF
