**DIRAC
.TITLE
 HI - densities at the nucleus
.WAVE FUNCTION
.PROPERTIES
**PROPERTIES
.DIPOLE
.RHONUC
.EFFDEN
*EXPECTATION VALUE
.ORBANA
**INTEGRALS
*READIN
.UNCONTRACTED
**HAMILTONIAN
.X2C
**WAVE FUNCTION
.SCF
*SCF
.CLOSED SHELL
54
.EVCCNV
1.0d-06
**MOLECULE
*BASIS
.DEFAULT
 dyall.v2z
.SPECIAL
 H BASIS cc-pVDZ
**END OF
