DIRAC pam run in /home/saue/Dirac/build_norecalc/test/fscc_highspin
DIRAC serial starts by allocating 64000000 words (488 MB) of memory
             out of the allowed maximum of 2147483648 words (16384 MB)

Note: maximum allocatable memory for serial run can be set by pam --aw

 *******************************************************************************
 *                                                                             *
 *                                O U T P U T                                  *
 *                                   from                                      *
 *                                                                             *
 *                   @@@@@    @@   @@@@@     @@@@     @@@@@                    *
 *                   @@  @@        @@  @@   @@  @@   @@                        *
 *                   @@  @@   @@   @@@@@    @@@@@@   @@                        *
 *                   @@  @@   @@   @@ @@    @@  @@   @@                        *
 *                   @@@@@    @@   @@  @@   @@  @@    @@@@@                    *
 *                                                                             *
 *                                                                             *
 %}ZS)S?$=$)]S?$%%>SS$%S$ZZ6cHHMHHHHHHHHMHHM&MHbHH6$L/:<S///</:|/:|:/::!:.::--:%
 $?S$$%$$$$?%?$(SSS$SSSHMMMMMMMMMMMMMMMMMM6H&6S&SH&&k?6$r~::://///::::::.:::-::$
 (%?)Z??$$$(S%$>$)S6HMMMMMMMMMMMMMMMMMMMMMMR6M]&&$6HR$&6(i::::::|i|:::::::-:-::(
 $S?$$)$?$%?))?S/]#MMMMMMMMMMMMMMMMMMMMMMMMMMHM1HRH9R&$$$|):?:/://|:/::/:/.::.:$
 SS$%%?$%((S)?Z[6MMMMMMMMMMMMMMMMMMMMMMMMMMMMMMMMM&HF$$&/)S?<~::!!:::::::/:-:|.S
 SS%%%%S$%%%$$MMMMMMMMMMMMMMMMMMMMMMMMMMMMMMMMMMMHHHHHHM>?/S/:/:::`:/://:/::-::S
 ?$SSSS?%SS$)MMMMMMMMMMMMMMMMMMMMMMMMMMMMMMMMMMMMMMMMMMM/4?:S:/:::/:::/:/:::.::?
 S$(S?S$%(?$HMMMMMMMMMMMMMMMMM#&7RH99MMMMMMMMMMMMMMMMMMHHHd$/:::::/::::::-//.:.S
 (?SS(%)S&HMMMMMMMMMMMMMMMMM#S|///???$9HHMMMMMMMMMDSZ&1S/?</>?~:///::|/!:/-:-:.(
 $S?%?<H(MMMMMMMMMMMMMMMMR?`. :.:`::<>:``?/*?##*)$:/>       `((%://::/:::::/::/$
 S$($$)HdMMMMMMMMMMMMMMMP: . `   `  `    `      `-            `Z<:>?::/:::::|:iS
 c%%%&HMMMMMMMMMMMMMMMM6:                                      `$%)>%%</>!:::::c
 S?%/MMMMMMMMMMMMMMMMMMH-                                        /ZSS>?:?~:;/::S
 $SZ?MMMMMMMMMMMMMMMMMH?.                                        \"&((/?//?|:::$
 $%$%&MMMMMMMMMMMMMMMMM:.                                          ?%/S:</::/::$
 ($?}&HMMMMMMMMMMMMMMMM>:                                          $%%<?/i:|i::(
 Z$($&MMMMMMMMMMMMMMMMHk(:.  . -                                   .S/\?\?/!:/:Z
 (??$<HMMMMMMMMMMMMMMMFk|:   -.-.                                  :%/%/(:/:ii|(
 SZ(S?]MMMMMMMMMMMMMMHS?:- -  ::.:                                  |/S:</::?||S
 $%)$$(MMMMMMMMMMMMMMR):`:. :.:::`,,/bcokb/_                       :S?%?|~:/:/:$
 %$$%$)[[?$?MMMMMMMMMM: :.:-.::::$7?<&7&MMMMMMM#/           _ .. ..:</?:(:/::::%
 $$$?Z?HHH~|/MMMMMMMMM/`.-.:.:/:%%%%?dHMMMMMMMMMMH?,-   .,bMMMM6//./i~/~:<:::/:$
 $($S$M//::S?ZHMMMMMH/:.`:::.:/%S/&MMHMMMMMMMMRM&><   ,HMMMMMMMF  :::?:///:|:::$
 )[$S$S($|_i:#>::*H&?/::.::/:\"://:?>>`:&HMHSMMMM$:`-   MMHMMMMHHT .)i/?////::/)
 $$[$$>$}:dHH&$$--?S::-:.:::--/-:``./::>%Zi?)&/?`:.`   `H?$T*\" `  /%?>%:)://ii$
 $&=&/ZS}$RF<:?/-.|%r/:::/:/:`.-.-..|::S//!`\"``          >??:    `SS<S:)!/////$
 Z&]>b[Z(Z?&%:::../S$$:>:::i`.`. `-.`  `                         ,>%%%:>/>/!|:/Z
 $$&/F&1$c$?>:>?/,>?$$ZS/::/:-: ...                              |S?S)S?<~:::::$
 &$&$&$k&>>|?<:<?((/$[/?)i~/:/. - -                              S?:%%%?/:::/::&
 =[/Z[[Fp[MMH$>?Z&S$$$/$S///||..-           -.-                  /((S$:%<:///:/=
 $&>1MHHMMMM6M9MMMM$Z$}$S%/:::.`.            .:/,,,dcb>/:.       ((SSSS%:)!//i|$
 MMMMMMMMMMMR&&RRRHR&&($(?:|i::-             .:%&S&$[&H&``     ../>%;/?>??:<::>M
 MMMMMMMMMMMMS/}S$&&H&[$SS//:::.:.   . . .v</Jq1&&D]&M&<,      :/::/?%%)S>?://:M
 MMMMMMMMMMMM?}$/$$kMM&&$(%/?//:..`.  .|//1d/`://?*/*/\"` `     .:/(SS$%(S%)):%M
 MMMMMMMMMMMM(}$$>&&MMHR#$S%%:?::.:|-.`:;&&b/D/$p=qpv//b/~`   :/~~%%??$=$)Z$S+;M
 MMMMMMMMMMMM[|S$$Z1]MMMMD[$?$:>)/::: :/?:``???bD&{b<<-`     .,:/)|SS(}Z/$$?/<SM
 MMMMMMMMMMMM||$)&7k&MMMMH9]$$??Z%|!/:i::`  `` .             SS?SS?Z/]1$/&$c/$SM
 MMMMMMMMMMMM| -?>[&]HMMMMMMMH1[/7SS(?:/..-` ::/Sc,/_,     _<$?SS%$S/&c&&$&>//<M
 MMMMMMMMMMMMR  `$&&&HMM9MMMMMMM&&c$%%:/:/:.:.:/\?\?/\    _MMHk/7S/]dq&1S<&&></M
 MMMMMMMMMMMMM?  :&96MHMMMMMMMMMMMHHk[S%(<<:// `         ,MMMMMMM&/Z6H]DkH]1$&&M
 MMMMMMMMMMMMMD    99H9HMMMMMMMMMMMMMMMb&%$<:i.:....    .MMMMMMMMM6HHHRH&H&H1SFM
 MMMMMMMMMMMMMM|   `?HMMMMMMMMMMMMMMMMMMMHk6k&>$&Z$/?_.bHMMMMMMMMMMM&6HRM9H6]ZkM
 MMMMMMMMMMMMMMM/    `TMMMMMMMMMMMMMMMMMMMMMMMMMMMMMMMMMMMMMMMMMMMMMMHMH6RH&R6&M
 MMMMMMMMMMMMMMMM    -|?HMMMMMMMMMMMMMMMMMMMMMMMMMMMMMMMMMMMMMMMMMMMMMFHH6HMD&&M
 MMMMMMMMMMMMMMMMk  ..:~?9MMMMMMMMMMMMM#`:MMMMMMMMMMMMMMMMMMMMMMMMMMMMM9MHkR6&FM
 MMMMMMMMMMMMMMMMM/  .-!:%$ZHMMMMMMMMMR` dMMMMMMMMMMMMMMMMMMMMMMMMMMMMM9MRMHH9&M
 MMMMMMMMMMMMMMMMMML,:.-|::/?&&MMMMMM` .MMMMMMMMMMMMMMMMMMMMMMMMMMMMMMMMHRMH&&6M
 MMMMMMMMMMMMMMMMMMMc%>/:::i<:SMMMMMMHdMMMMMMMMMMMMMMMMMMMMMMMMMMMMMMMMHHM&969kM
 MMMMMMMMMMMMMMMMMMMMSS/$$/(|HMMMMMMMMMMMMMMMMMMMMMMMMMMMMMMMMMMMMMMMMMMMHH&HH&M
 MMMMMMMMMMMMMMMMMMMM6S/?/MMMMMMMMMMMMMMMMMMMMMMMMMMMMMMMMMMMMMMMMMMMMMR96H1DR1M
 MMMMMMMMMMMMMMMMMMMMM&$MHMMMMMMMMMMMMMMMMMMMMMMMMMMMMMMMMMMMMMMMMMMMMMHMH691&&M
 MMMMMMMMMMMMMMMMMMMMMMMMMMMMMMMMMMMMMMMMMMMMMMMMMMMMMMMMMMMMMMMMMMMMMMMMH&R&9ZM
 MMMMMMMMMMMMMMMMMMMMMMMMMRHMMMMMMMMMMMMMMMMMMMMMMMMMMMMMMMMMMMMMMMMMMMMH&96][6M
 MMMMMMMMMMMMMMMMMMMMMMMMp?:MMMMMMMMMMMMMMMMMMMMMMMMMMMMMMMMMMMMMMMMMMM96HH1][FM
 MMMMMMMMMMMMMMMMMMMMMMMM> -HMMMMMMMMMMMMMMMMMMMMMMMMMMMMMMMMMMMMMMMMMMMH&1k&$&M
 *******************************************************************************
 *                                                                             *
 *         =========================================================           *
 *                     Program for Atomic and Molecular                        *
 *          Direct Iterative Relativistic All-electron Calculations            *
 *         =========================================================           *
 *                                                                             *
 *                                                                             *
 *    Written by:                                                              *
 *                                                                             *
 *    Lucas Visscher           VU University Amsterdam           Netherlands   *
 *    Hans Joergen Aa. Jensen  University of Southern Denmark    Denmark       *
 *    Radovan Bast             UiT The Arctic University of      Norway        *
 *    Trond Saue               Universite Toulouse III           France        *
 *                                                                             *
 *    with contributions from:                                                 *
 *                                                                             *
 *    Vebjoern Bakken          University of Oslo                Norway        *
 *    Kenneth G. Dyall         Schrodinger, Inc., Portland       USA           *
 *    Sebastien Dubillard      University of Strasbourg          France        *
 *    Ulf Ekstroem             University of Oslo                Norway        *
 *    Ephraim Eliav            University of Tel Aviv            Israel        *
 *    Thomas Enevoldsen        University of Southern Denmark    Denmark       *
 *    Elke Fasshauer           UiT The Arctic University of      Norway        *
 *    Timo Fleig               Universite Toulouse III           France        *
 *    Olav Fossgaard           UiT The Arctic University of      Norway        *
 *    Andre S. P. Gomes        CNRS/Universite de Lille          France        *
 *    Trygve Helgaker          University of Oslo                Norway        *
 *    Johan Henriksson         Linkoeping University             Sweden        *
 *    Miroslav Ilias           Matej Bel University              Slovakia      *
 *    Christoph R. Jacob       TU Braunschweig                   Germany       *
 *    Stefan Knecht            ETH Zuerich                       Switzerland   *
 *    Stanislav Komorovsky     UiT The Arctic University of      Norway        *
 *    Ossama Kullie            University of Kassel              Germany       *
 *    Jon K. Laerdahl          University of Oslo                Norway        *
 *    Christoffer V. Larsen    University of Southern Denmark    Denmark       *
 *    Yoon Sup Lee             KAIST, Daejeon                    South Korea   *
 *    Huliyar S. Nataraj       BME/Budapest Univ. Tech. & Econ.  Hungary       *
 *    Malaya Kumar Nayak       Bhabha Atomic Research Centre     India         *
 *    Patrick Norman           Linkoeping University             Sweden        *
 *    Malgorzata Olejniczak    CNRS/Universite de Lille          France        *
 *    Jeppe Olsen              Aarhus University                 Denmark       *
 *    Young Choon Park         KAIST, Daejeon                    South Korea   *
 *    Jesper K. Pedersen       University of Southern Denmark    Denmark       *
 *    Markus Pernpointner      University of Heidelberg          Germany       *
 *    Roberto Di Remigio       UiT The Arctic University of      Norway        *
 *    Kenneth Ruud             UiT The Arctic University of      Norway        *
 *    Pawel Salek              Stockholm Inst. of Technology     Sweden        *
 *    Bernd Schimmelpfennig    Karlsruhe Institute of Technology Germany       *
 *    Jetze Sikkema            VU University Amsterdam           Netherlands   *
 *    Andreas J. Thorvaldsen   UiT The Arctic University of      Norway        *
 *    Joern Thyssen            University of Southern Denmark    Denmark       *
 *    Joost van Stralen        VU University Amsterdam           Netherlands   *
 *    Sebastien Villaume       Linkoeping University             Sweden        *
 *    Olivier Visser           University of Groningen           Netherlands   *
 *    Toke Winther             University of Southern Denmark    Denmark       *
 *    Shigeyoshi Yamamoto      Chukyo University                 Japan         *
 *                                                                             *
 *    For the complete list of contributors to the DIRAC code see our          *
 *    website http://www.diracprogram.org                                      *
 *                                                                             *
 *    This is an experimental code. The authors accept no responsibility       *
 *    for the performance of the code or for the correctness of the results.   *
 *                                                                             *
 *    The code (in whole or part) is not to be reproduced for further          *
 *    distribution without the written permission of the authors or            *
 *    their representatives.                                                   *
 *                                                                             *
 *    If results obtained with this code are published, an                     *
 *    appropriate citation would be:                                           *
 *                                                                             *
 *    DIRAC, a relativistic ab initio electronic structure program,            *
 *    Release DIRAC17 (2017),                                                  *
 *    written by L. Visscher, H. J. Aa. Jensen, R. Bast, and T. Saue,          *
 *    with contributions from V. Bakken, K. G. Dyall, S. Dubillard,            *
 *    U. Ekstroem, E. Eliav, T. Enevoldsen, E. Fasshauer, T. Fleig,            *
 *    O. Fossgaard, A. S. P. Gomes, T. Helgaker, J. Henriksson, M. Ilias,      *
 *    Ch. R. Jacob, S. Knecht, S. Komorovsky, O. Kullie, J. K. Laerdahl,       *
 *    C. V. Larsen, Y. S. Lee, H. S. Nataraj, M. K. Nayak, P. Norman,          *
 *    G. Olejniczak, J. Olsen, Y. C. Park, J. K. Pedersen, M. Pernpointner,    *
 *    R. Di Remigio, K. Ruud, P. Salek, B. Schimmelpfennig, J. Sikkema,        *
 *    A. J. Thorvaldsen, J. Thyssen, J. van Stralen, S. Villaume, O. Visser,   *
 *    T. Winther, and S. Yamamoto (see http://www.diracprogram.org).           *
 *                                                                             *
 *******************************************************************************


Version information
-------------------

Branch        | norecalc
Commit hash   | 120e19c
Commit author | Trond Saue
Commit date   | Fri Mar 10 19:54:13 2017 +0100


Configuration and build information
-----------------------------------

Who compiled             | saue
Compiled on server       | dirac
Operating system         | Linux-4.4.0-34-generic
CMake version            | 3.5.1
CMake generator          | Unix Makefiles
CMake build type         | release
Configuration time       | 2017-03-16 20:41:26.640514
Python version           | 2.7.1
Fortran compiler         | /usr/bin/gfortran
Fortran compiler version | 5.4.0
Fortran compiler flags   |   -g -fcray-pointer -fbacktrace -fno-range-check -DVAR_GFORTRAN -DVAR_MFDS
C compiler               | /usr/bin/gcc
C compiler version       | 5.4.0
C compiler flags         |   -g
C++ compiler             | /usr/bin/g++
C++ compiler version     | 5.4.0
C++ compiler flags       |   -g -Wall -Wno-unknown-pragmas -Wno-sign-compare -Woverloaded-virtual -Wwrite-strings -Wno-unused
Static linking           | False
64-bit integers          | False
MPI parallelization      | False
MPI launcher             | unknown
Math libraries           | /usr/lib/atlas-base/libatlas.so;/usr/lib/atlas-base/atlas/liblapack.so;/usr/lib/atlas-base/libf77blas.so;/usr/lib/atlas-base/libcblas.so;/usr/lib/atlas-base/libatlas.so
Builtin BLAS library     | OFF
Builtin LAPACK library   | OFF
Explicit libraries       | unknown
Compile definitions      | HAVE_ATLAS_BLAS;HAVE_ATLAS_LAPACK;MOD_UNRELEASED;SYS_LINUX;PRG_DIRAC;INSTALL_WRKMEM=64000000;HAS_PCMSOLVER;MOD_QCORR;HAS_STIELTJES;MOD_INTEREST;MOD_LAO_REARRANGED;MOD_MCSCF_spinfree;MOD_AOOSOC;MOD_ESR;MOD_KRCC;MOD_SRDFT


 Selftest of ISO_C_BINDING Fortran - C/C++ interoperability PASSED

Execution time and host
-----------------------

 
     Date and time (Linux)  : Fri Mar 17 07:58:16 2017
     Host name              : dirac                                   


Contents of the input file
--------------------------

**DIRAC                                                                                             
.TITLE                                                                                              
  test system                                                                                       
.WAVE F                                                                                             
**GENERAL                                                                                           
#.DOJACO                                                                                            
#.QJACO                                                                                             
**HAMILTONIAN                                                                                       
.PRINT                                                                                              
0                                                                                                   
.JZOUT                                                                                              
.ONESYS                                                                                             
**WAVE FUNCTIONS                                                                                    
.SCF                                                                                                
#.RESOLVE                                                                                           
*SCF                                                                                                
.CLOSED SHELL                                                                                       
 6 8                                                                                                
.OPEN SHELL                                                                                         
1                                                                                                   
2/4,0                                                                                               
.PRINT                                                                                              
1                                                                                                   
.MAXITR                                                                                             
1                                                                                                   
.FOMOUT                                                                                             
.NOBNCR                                                                                             
*END OF                                                                                             


Contents of the molecule file
-----------------------------

INTGRL                                                                                              
 artificial test basis                                                                              
 automatic symmetry detection                                                                       
C   1              A                                                                                
       77.    2                                                                                     
X      .0000000000        0.0000000000        1.000                                                 
X      .0000000000        0.0000000000        -1.00                                                 
LARGE    3    1    1    1                                                                           
f   1    0                                                                                          
      1500.0                                                                                        
f   1    0                                                                                          
      800.0                                                                                         
f   1    0                                                                                          
      95.0                                                                                          
FINISH                                                                                              


    *************************************************************************
    *****************************   test system *****************************
    *************************************************************************

 Jobs in this run:
   * Wave function


    **************************************************************************
    ************************** General DIRAC set-up **************************
    **************************************************************************

   CODATA Recommended Values of the Fundamental Physical Constants: 1998  
                Peter J. Mohr and Barry N. Taylor                         
   Journal of Physical and Chemical Reference Data, Vol. 28, No. 6, 1999  
 * The speed of light :        137.0359998
 * Running in four-component mode
 * Direct evaluation of the following two-electron integrals:
   - LL-integrals
   - SL-integrals
   - SS-integrals
   - GT-integrals
 * Spherical transformation embedded in MO-transformation
   for large components
 * Transformation to scalar RKB basis embedded in
   MO-transformation for small components
 * Thresholds for linear dependence:
   Large components:   1.00D-06
   Small components:   1.00D-08
 * General print level   :   0


    *************************************************************************
    ****************** Output from HERMIT input processing ******************
    *************************************************************************



   ***************************************************************************
   ****************** Output from MOLECULE input processing ******************
   ***************************************************************************



  Title Cards
  -----------

   artificial test basis                                                  
   automatic symmetry detection                                           

  Coordinates are entered in Angstroms and converted to atomic units.
          - Conversion factor : 1 bohr = 0.52917721 A

  Nuclear Gaussian exponent for atom of charge  77.000 :    1.4398142103D+08


                     SYMADD: Detection of molecular symmetry
                     ---------------------------------------

 Symmetry test threshold:  5.00E-06

    The molecule has been centered at center of mass

 Symmetry point group found: D(oo,h)        

 Centered and Rotated in original atom order
 -------------------------------------------
   77         0.00000000     0.00000000    -1.88972613       1
   77         0.00000000     0.00000000     1.88972613       1

 The following elements were found: X  Y  Z  


  Symmetry Operations
  -------------------

  Symmetry operations: 3



                          SYMGRP:Point group information
                          ------------------------------

Full group is:  D(oo,h)        
Represented as: D2h

   * The point group was generated by:

      Reflection in the yz-plane
      Reflection in the xz-plane
      Reflection in the xy-plane

   * Group multiplication table

        |  E   C2z  C2y  C2x   i   Oxy  Oxz  Oyz
   -----+----------------------------------------
     E  |  E   C2z  C2y  C2x   i   Oxy  Oxz  Oyz
    C2z | C2z   E   C2x  C2y  Oxy   i   Oyz  Oxz
    C2y | C2y  C2x   E   C2z  Oxz  Oyz   i   Oxy
    C2x | C2x  C2y  C2z   E   Oyz  Oxz  Oxy   i 
     i  |  i   Oxy  Oxz  Oyz   E   C2z  C2y  C2x
    Oxy | Oxy   i   Oyz  Oxz  C2z   E   C2x  C2y
    Oxz | Oxz  Oyz   i   Oxy  C2y  C2x   E   C2z
    Oyz | Oyz  Oxz  Oxy   i   C2x  C2y  C2z   E 

   * Character table

        |  E   C2z  C2y  C2x   i   Oxy  Oxz  Oyz
   -----+----------------------------------------
    Ag  |   1    1    1    1    1    1    1    1
    B3u |   1   -1   -1    1   -1    1    1   -1
    B2u |   1   -1    1   -1   -1    1   -1    1
    B1g |   1    1   -1   -1    1    1   -1   -1
    B1u |   1    1   -1   -1   -1   -1    1    1
    B2g |   1   -1    1   -1    1   -1    1   -1
    B3g |   1   -1   -1    1    1   -1   -1    1
    Au  |   1    1    1    1   -1   -1   -1   -1

   * Direct product table

        | Ag   B3u  B2u  B1g  B1u  B2g  B3g  Au 
   -----+----------------------------------------
    Ag  | Ag   B3u  B2u  B1g  B1u  B2g  B3g  Au 
    B3u | B3u  Ag   B1g  B2u  B2g  B1u  Au   B3g
    B2u | B2u  B1g  Ag   B3u  B3g  Au   B1u  B2g
    B1g | B1g  B2u  B3u  Ag   Au   B3g  B2g  B1u
    B1u | B1u  B2g  B3g  Au   Ag   B3u  B2u  B1g
    B2g | B2g  B1u  Au   B3g  B3u  Ag   B1g  B2u
    B3g | B3g  Au   B1u  B2g  B2u  B1g  Ag   B3u
    Au  | Au   B3g  B2g  B1u  B1g  B2u  B3u  Ag 


                            **************************
                            *** Output from DBLGRP ***
                            **************************

   * Two fermion irreps:  E1g  E1u
   * Real group. NZ = 1
   * Direct product decomposition:
          E1g x E1g : Ag  + B1g + B2g + B3g
          E1u x E1g : Au  + B1u + B2u + B3u
          E1u x E1u : Ag  + B1g + B2g + B3g


                                 Spinor structure
                                 ----------------


   * Fermion irrep no.: 1            * Fermion irrep no.: 2

      La  |  Ag (1)  B1g(2)  |                La  |  Au (1)  B1u(2)  |
      Sa  |  Au (1)  B1u(2)  |                Sa  |  Ag (1)  B1g(2)  |
      Lb  |  B2g(3)  B3g(4)  |                Lb  |  B2u(3)  B3u(4)  |
      Sb  |  B2u(3)  B3u(4)  |                Sb  |  B2g(3)  B3g(4)  |


                              Quaternion symmetries
                              ---------------------

    Rep  T(+)
    -----------------------------
    Ag   1
    B3u  k
    B2u  j
    B1g  i
    B1u  i
    B2g  j
    B3g  k
    Au   1

  QM-QM nuclear repulsion energy :   1568.745834005350



                                 Isotopic Masses
                                 ---------------

                           X    1    192.962917
                           X    2    192.962917

                       Total mass:   385.925834 amu
                       Natural abundance:  39.188 %

 Center-of-mass coordinates (a.u.):    0.000000    0.000000    0.000000


  Atoms and basis sets
  --------------------

  Number of atom types :    1
  Total number of atoms:    2

  label    atoms   charge   prim    cont     basis   
  ----------------------------------------------------------------------
  X           2      77      10      10      L  - [1s1p1d|1s1p1d]                                                
                             23      23      S  - [1s2p1d1f|1s2p1d1f]                                            
  ----------------------------------------------------------------------
                             20      20      L  - large components
                             46      46      S  - small components
  ----------------------------------------------------------------------
  total:      2     154      66      66

  Cartesian basis used.
  Threshold for integrals (to be written to file):  1.00D-15


  References for the basis sets
  -----------------------------

  Atom type   1
  Basis set typed explicitly in input file                                        


  Cartesian Coordinates (bohr)
  ----------------------------

  Total number of coordinates:  6


   1   X    1   x      0.0000000000
   2            y      0.0000000000
   3            z      1.8897261339

   4   X    2   x      0.0000000000
   5            y      0.0000000000
   6            z     -1.8897261339



  Cartesian coordinates in XYZ format (Angstrom)
  ----------------------------------------------

    2

X      0.0000000000   0.0000000000   1.0000000000
X      0.0000000000   0.0000000000  -1.0000000000


  Symmetry Coordinates
  --------------------

  Number of coordinates in each symmetry:     1    1    1    0    1    1    1    0


  Symmetry  Ag ( 1)

    1   X     z    [  3  -    6 ]/2


  Symmetry  B3u( 2)

    2   X     x    [  1  +    4 ]/2


  Symmetry  B2u( 3)

    3   X     y    [  2  +    5 ]/2


  Symmetry  B1u( 5)

    4   X     z    [  3  +    6 ]/2


  Symmetry  B2g( 6)

    5   X     x    [  1  -    4 ]/2


  Symmetry  B3g( 7)

    6   X     y    [  2  -    5 ]/2


   Interatomic separations (in Angstroms):
   ---------------------------------------

            X  1        X  2

   X  1    0.000000
   X  2    2.000000    0.000000




  Bond distances (angstroms):
  ---------------------------

                  atom 1     atom 2                           distance
                  ------     ------                           --------
  bond distance:    X  2       X  1                           2.000000



   Nuclear repulsion energy : 1568.745834005350 Hartree


                                GETLAB: AO-labels
                                -----------------

   * Large components:   20
     1  L X   1 s        2  L X   2 s        3  L X   1 px       4  L X   1 py       5  L X   1 pz       6  L X   2 px  
     7  L X   2 py       8  L X   2 pz       9  L X   1 dxx     10  L X   1 dxy     11  L X   1 dxz     12  L X   1 dyy 
    13  L X   1 dyz     14  L X   1 dzz     15  L X   2 dxx     16  L X   2 dxy     17  L X   2 dxz     18  L X   2 dyy 
    19  L X   2 dyz     20  L X   2 dzz 
   * Small components:   40
    21  S X   1 s       22  S X   2 s       23  S X   1 px      24  S X   1 py      25  S X   1 pz      26  S X   2 px  
    27  S X   2 py      28  S X   2 pz      29  S X   1 dxx     30  S X   1 dxy     31  S X   1 dxz     32  S X   1 dyy 
    33  S X   1 dyz     34  S X   1 dzz     35  S X   2 dxx     36  S X   2 dxy     37  S X   2 dxz     38  S X   2 dyy 
    39  S X   2 dyz     40  S X   2 dzz     41  S X   1 fxxx    42  S X   1 fxxy    43  S X   1 fxxz    44  S X   1 fxyy
    45  S X   1 fxyz    46  S X   1 fxzz    47  S X   1 fyyy    48  S X   1 fyyz    49  S X   1 fyzz    50  S X   1 fzzz
    51  S X   2 fxxx    52  S X   2 fxxy    53  S X   2 fxxz    54  S X   2 fxyy    55  S X   2 fxyz    56  S X   2 fxzz
    57  S X   2 fyyy    58  S X   2 fyyz    59  S X   2 fyzz    60  S X   2 fzzz


                                GETLAB: SO-labels
                                -----------------

   * Large components:   20
     1  L Ag X  s        2  L Ag X  pz       3  L Ag X  dxx      4  L Ag X  dyy      5  L Ag X  dzz      6  L B3uX  px  
     7  L B3uX  dxz      8  L B2uX  py       9  L B2uX  dyz     10  L B1gX  dxy     11  L B1uX  s       12  L B1uX  pz  
    13  L B1uX  dxx     14  L B1uX  dyy     15  L B1uX  dzz     16  L B2gX  px      17  L B2gX  dxz     18  L B3gX  py  
    19  L B3gX  dyz     20  L Au X  dxy 
   * Small components:   40
    21  S Ag X  s       22  S Ag X  pz      23  S Ag X  dxx     24  S Ag X  dyy     25  S Ag X  dzz     26  S Ag X  fxxz
    27  S Ag X  fyyz    28  S Ag X  fzzz    29  S B3uX  px      30  S B3uX  dxz     31  S B3uX  fxxx    32  S B3uX  fxyy
    33  S B3uX  fxzz    34  S B2uX  py      35  S B2uX  dyz     36  S B2uX  fxxy    37  S B2uX  fyyy    38  S B2uX  fyzz
    39  S B1gX  dxy     40  S B1gX  fxyz    41  S B1uX  s       42  S B1uX  pz      43  S B1uX  dxx     44  S B1uX  dyy 
    45  S B1uX  dzz     46  S B1uX  fxxz    47  S B1uX  fyyz    48  S B1uX  fzzz    49  S B2gX  px      50  S B2gX  dxz 
    51  S B2gX  fxxx    52  S B2gX  fxyy    53  S B2gX  fxzz    54  S B3gX  py      55  S B3gX  dyz     56  S B3gX  fxxy
    57  S B3gX  fyyy    58  S B3gX  fyzz    59  S Au X  dxy     60  S Au X  fxyz


  Symmetry Orbitals
  -----------------

  Number of orbitals in each symmetry:           14     8     8     3    14     8     8     3
  Number of large orbitals in each symmetry:      5     2     2     1     5     2     2     1
  Number of small orbitals in each symmetry:      9     6     6     2     9     6     6     2

* Large component functions

  Symmetry  Ag ( 1)

        1 functions:    X  s   1+2
        1 functions:    X  pz  1-2
        1 functions:    X  dxx 1+2
        1 functions:    X  dyy 1+2
        1 functions:    X  dzz 1+2

  Symmetry  B3u( 2)

        1 functions:    X  px  1+2
        1 functions:    X  dxz 1-2

  Symmetry  B2u( 3)

        1 functions:    X  py  1+2
        1 functions:    X  dyz 1-2

  Symmetry  B1g( 4)

        1 functions:    X  dxy 1+2

  Symmetry  B1u( 5)

        1 functions:    X  s   1-2
        1 functions:    X  pz  1+2
        1 functions:    X  dxx 1-2
        1 functions:    X  dyy 1-2
        1 functions:    X  dzz 1-2

  Symmetry  B2g( 6)

        1 functions:    X  px  1-2
        1 functions:    X  dxz 1+2

  Symmetry  B3g( 7)

        1 functions:    X  py  1-2
        1 functions:    X  dyz 1+2

  Symmetry  Au ( 8)

        1 functions:    X  dxy 1-2

* Small component functions

  Symmetry  Ag ( 1)

        1 functions:    X  s   1+2
        2 functions:    X  pz  1-2
        1 functions:    X  dxx 1+2
        1 functions:    X  dyy 1+2
        1 functions:    X  dzz 1+2
        1 functions:    X  fxxz1-2
        1 functions:    X  fyyz1-2
        1 functions:    X  fzzz1-2

  Symmetry  B3u( 2)

        2 functions:    X  px  1+2
        1 functions:    X  dxz 1-2
        1 functions:    X  fxxx1+2
        1 functions:    X  fxyy1+2
        1 functions:    X  fxzz1+2

  Symmetry  B2u( 3)

        2 functions:    X  py  1+2
        1 functions:    X  dyz 1-2
        1 functions:    X  fxxy1+2
        1 functions:    X  fyyy1+2
        1 functions:    X  fyzz1+2

  Symmetry  B1g( 4)

        1 functions:    X  dxy 1+2
        1 functions:    X  fxyz1-2

  Symmetry  B1u( 5)

        1 functions:    X  s   1-2
        2 functions:    X  pz  1+2
        1 functions:    X  dxx 1-2
        1 functions:    X  dyy 1-2
        1 functions:    X  dzz 1-2
        1 functions:    X  fxxz1+2
        1 functions:    X  fyyz1+2
        1 functions:    X  fzzz1+2

  Symmetry  B2g( 6)

        2 functions:    X  px  1-2
        1 functions:    X  dxz 1+2
        1 functions:    X  fxxx1-2
        1 functions:    X  fxyy1-2
        1 functions:    X  fxzz1-2

  Symmetry  B3g( 7)

        2 functions:    X  py  1-2
        1 functions:    X  dyz 1+2
        1 functions:    X  fxxy1-2
        1 functions:    X  fyyy1-2
        1 functions:    X  fyzz1-2

  Symmetry  Au ( 8)

        1 functions:    X  dxy 1-2
        1 functions:    X  fxyz1+2


   ***************************************************************************
   *************************** Hamiltonian defined ***************************
   ***************************************************************************

 * Print level:    0
 * Dirac-Coulomb Hamiltonian
   with the following modifications:
 * SS integrals neglected:
   Interatomic Coulombic SS-contributions modelled by
   classical repulsion of small component atomic charges
   using tabulated charges.
 * Default integral flags passed to all modules
   - LL-integrals:     1
   - LS-integrals:     1
   - SS-integrals:     0
   - GT-integrals:     0
 * Basis set:
   - uncontracted large component basis set
   - uncontracted small component basis set


 Information about the restricted kinetic balance scheme:
 * Default RKB projection:
   1: Pre-projection in scalar basis
   2: Removal of unphysical solutions (via diagonalization of free particle Hamiltonian)
   - Two-electron part ignored (one-electron system)


    **************************************************************************
    ************************** Wave function module **************************
    **************************************************************************

 Wave function types requested (in input order):
     HF        

 Wave function jobs in execution order (expanded):
 * Hartree-Fock calculation
===========================================================================
 *SCF: Set-up for Hartree-Fock calculation:
===========================================================================
 * Number of fermion irreps: 2
 * Open shell SCF calculation using Average-of-Configuration

 * Shell specifications:

                                        Orbitals
                        #electrons  irrep 1  irrep 2     f        a      alpha
                        ----------  -------  -------  -------  -------  -------
   Closed shell           14             3        4    1.0000   1.0000   0.0000
   Open shell no. 1        2.00          2        0    0.5000   0.6667   0.6667
   ----------------------------------------------------------------------------
   Total                  16.00          5        4

   f is the fraction occupation; a and alpha open shell coupling coefficients.

 * General print level   :   1

 ***** INITIAL TRIAL SCF FUNCTION *****
 * Trial vectors read from file DFCOEF
 * Scaling of active-active block correction to open shell Fock operator    0.500000
   to improve convergence (default value).
   The final open-shell orbital energies are recalculated with 1.0 scaling,
   such that all occupied orbital energies correspond to Koopmans' theorem ionization energies.

 ***** SCF CONVERGENCE CRITERIA *****
 * Convergence on norm of error vector (gradient).
   Desired convergence:1.000D-07
   Allowed convergence:1.000D-06

 ***** CONVERGENCE CONTROL *****
 * Fock matrix constructed using differential density matrix
    with optimal parameter.
 * DIIS (in MO basis)
 * DIIS will be activated when convergence reaches : 1.00D+20
   - Maximum size of B-matrix:   10
 * Damping of Fock matrix when DIIS is not activated. 
   Weight of old matrix    : 0.250
 * Maximum number of SCF iterations  :    1
 * No quadratic convergent Hartree-Fock
 * Contributions from 2-electron integrals to Fock matrix:
   LL-integrals.
   SL-integrals from iteration    1
    ---> this is default setting from Hamiltonian input
  * Writing out Fock MO matrix(es) into formatted file(s) in linear symmetry
 ***** OUTPUT CONTROL *****
 * Only electron eigenvalues written out.


 ********************************************************************************
 *************************** Input consistency checks ***************************
 ********************************************************************************



    *************************************************************************
    ************************ End of input processing ************************
    *************************************************************************



                      Nuclear contribution to dipole moments
                      --------------------------------------

                    All dipole components are zero by symmetry


                       Generating Lowdin canonical matrix:
                       -----------------------------------

   L   Ag    * Deleted:          1(Proj:          1, Lindep:          0) Smin: 0.20E+01
   L   B1g   * Deleted:          0(Proj:          0, Lindep:          0) Smin: 0.20E+01
   L   B2g   * Deleted:          0(Proj:          0, Lindep:          0) Smin: 0.20E+01
   L   B3g   * Deleted:          0(Proj:          0, Lindep:          0) Smin: 0.20E+01
   S   B3u   * Deleted:          1(Proj:          1, Lindep:          0) Smin: 0.62E+00
   S   B2u   * Deleted:          1(Proj:          1, Lindep:          0) Smin: 0.62E+00
   S   B1u   * Deleted:          2(Proj:          2, Lindep:          0) Smin: 0.62E+00
   S   Au    * Deleted:          0(Proj:          0, Lindep:          0) Smin: 0.20E+01
   L   B3u   * Deleted:          0(Proj:          0, Lindep:          0) Smin: 0.20E+01
   L   B2u   * Deleted:          0(Proj:          0, Lindep:          0) Smin: 0.20E+01
   L   B1u   * Deleted:          1(Proj:          1, Lindep:          0) Smin: 0.20E+01
   L   Au    * Deleted:          0(Proj:          0, Lindep:          0) Smin: 0.20E+01
   S   Ag    * Deleted:          2(Proj:          2, Lindep:          0) Smin: 0.62E+00
   S   B1g   * Deleted:          0(Proj:          0, Lindep:          0) Smin: 0.20E+01
   S   B2g   * Deleted:          1(Proj:          1, Lindep:          0) Smin: 0.62E+00
   S   B3g   * Deleted:          1(Proj:          1, Lindep:          0) Smin: 0.62E+00


                                Output from MODHAM
                                ------------------

 * Applied strict kinetic balance !
 * Applied SL-regrouping on AO2MO tranf.matrix in SLSORT.


                                Output from LINSYM
                                ------------------


 Parity   MJ  Functions(total) Functions(LC) Functions(SC)
 Jz_SS_matrix.fermirp1-2
     1    1/2         10            5            5
     1   -3/2          6            3            3
     1    5/2          2            1            1
 Jz_SS_matrix.fermirp2-2
    -1    1/2         10            5            5
    -1   -3/2          6            3            3
    -1    5/2          2            1            1


      **********************************************************************
      ************************* Orbital dimensions *************************
      **********************************************************************

                                   Irrep 1 Irrep 2   Sum
No. of electronic orbitals (NESH):     9       9      18
No. of positronic orbitals (NPSH):     9       9      18
Total no. of orbitals      (NORB):    18      18      36


     ***********************************************************************
     ************************* One-electron system *************************
     ***********************************************************************

E_HOMO...E_LUMO, symmetry 1:    12-412.23354   13-412.23264   14-332.62547   15-332.61501
E_HOMO...E_LUMO, symmetry 2:    31-412.23264   32-332.62547

=> Calculating sum of orbital energies


                                Output from ONEERG
                                ------------------

Electronic energy         :   -15622.826368346339
Nuclear potential energy  :     1568.745834005350
Total energy              :   -14054.080534340988
   * Real diagonalization      (CPU): 0.00000000s
* Total time for one-electron system: 0.00100000s


                                   Eigenvalues
                                   -----------


* Block   1 in E1g:  Omega =  1/2
  * Closed shell, f = 1.0000
-2566.156618063022  ( 2)    -534.985587011573  ( 2)    -412.233543160894  ( 2)
  * Open shell #1, f = 0.5000
 -332.625469537779  ( 2)
  * Virtual eigenvalues, f = 0.0000
 -328.719014513792  ( 2)

* Block   2 in E1g:  Omega =  3/2
  * Open shell #1, f = 0.5000
 -412.232635288861  ( 2)
  * Virtual eigenvalues, f = 0.0000
 -332.615012530655  ( 2)    -328.714486101165  ( 2)

* Block   3 in E1g:  Omega =  5/2
  * Virtual eigenvalues, f = 0.0000
 -328.705472004789  ( 2)

* Block   1 in E1u:  Omega =  1/2
  * Closed shell, f = 1.0000
-2566.156618063016  ( 2)    -534.985587011578  ( 2)    -412.233543160904  ( 2)
  * Virtual eigenvalues, f = 0.0000
 -332.625469537765  ( 2)    -328.719014513781  ( 2)

* Block   2 in E1u:  Omega =  3/2
  * Closed shell, f = 1.0000
 -412.232635288861  ( 2)
  * Virtual eigenvalues, f = 0.0000
 -332.615012530642  ( 2)    -328.714486101161  ( 2)

* Block   3 in E1u:  Omega =  5/2
  * Virtual eigenvalues, f = 0.0000
 -328.705472004789  ( 2)

* Occupation in fermion symmetry E1g
  * Inactive orbitals
     1/2 1/2 1/2
  * Active orbitals
     3/2 1/2
  * Virtual orbitals
     3/2 1/2 3/2 5/2

* Occupation in fermion symmetry E1u
  * Inactive orbitals
     1/2 1/2 1/2 3/2
  * Virtual orbitals
     1/2 3/2 1/2 3/2 5/2

* Occupation of subblocks
                       E1g:  1/2  3/2  5/2                                                                  
  closed shells (f=1.0000):    3    0    0
  open shell #1 (f=0.5000):    1    1    0
 virtual shells (f=0.0000):    1    2    1
tot.num. of pos.erg shells:    5    3    1
                       E1u:  1/2  3/2  5/2                                                                  
  closed shells (f=1.0000):    3    1    0
  open shell #1 (f=0.5000):    0    0    0
 virtual shells (f=0.0000):    2    2    1
tot.num. of pos.erg shells:    5    3    1


* HOMO - LUMO gap:

    E(LUMO) :  -332.62546954 au (symmetry E1u)
  - E(HOMO) :  -332.62546954 au (symmetry E1g)
  ------------------------------------------
    gap     :     0.00000000 au


* INFO: E(LUMO) - E(HOMO) small or negative.

*****************************************************
********** E N D   of   D I R A C  output  **********
*****************************************************


 
     Date and time (Linux)  : Fri Mar 17 07:58:16 2017
     Host name              : dirac                                   

>>>> Node 0, utime: 0, stime: 0, minflt: 702, majflt: 0, nvcsw: 0, nivcsw: 1, maxrss: 56932
>>>> Total WALL time used in DIRAC: 0s
  
  Dynamical Memory Usage Summary for Master
  
  Mean allocation size (Mb) :       135.67
  
  Largest          10  allocations
  
      488.28 Mb at subroutine __allocator_track_if_MOD_allocator_registe for WORK in PSISCF                            
      488.28 Mb at subroutine __allocator_track_if_MOD_allocator_registe for WORK in PAMSET - 2                        
      488.28 Mb at subroutine __allocator_track_if_MOD_allocator_registe for WORK in GMOTRA                            
      488.28 Mb at subroutine __allocator_track_if_MOD_allocator_registe for WORK in PAMSET - 1                        
      488.28 Mb at subroutine __allocator_track_if_MOD_allocator_registe for test allocation of work array in DIRAC mai
        0.76 Mb at subroutine __allocator_track_if_MOD_allocator_registe for PAMINP WORK array                         
        0.03 Mb at subroutine __allocator_track_if_MOD_allocator_registe for buf in butobs                             
        0.02 Mb at subroutine __allocator_track_if_MOD_allocator_registe for INTADR in XPLDEF                          
        0.02 Mb at subroutine __allocator_track_if_MOD_allocator_registe for INTREP in XPLDEF                          
        0.02 Mb at subroutine __allocator_track_if_MOD_allocator_registe for INTADR in XPLDEF                          
  
  Peak memory usage    (Mb) :       488.00
       reached at subroutine : __allocator_track_if_MOD_allocator_registe
              for variable   : buf in butobs                             
  
 MEMGET high-water mark:     0.00 MB

*****************************************************
