!
! Calculation of molecular oxygen using unrestricted single reference CC
! Calculation done in D2h symmetry
!
**DIRAC
.TITLE
Moelcular oxygen. Ground state.
.WAVE F
**HAMILTONIAN
.LVCORR
**WAVE FUNCTIONS
.SCF
.RELCCSD
*SCF
.CLOSED SHELL
 6 8
.OPEN SHELL
1
2/4,0
**RELCCSD
.NELEC
 4 2 3 3
*CCSORT
.USEOE ! Using HF orbital energies, instead of diagonal values of unrestricted Fock matrix
*END OF

