**DIRAC                                                                                             
.ANALYZE                                                                                            
**INTEGRALS
*READIN
.UNCONT
**WAVE FUNCTION                                                                                     
.SCF                                                                                                
*SCF
.CLOSED SHELL                                                                                                
106
**ANALYZE
.PROJEC
*PROJEC
.OWNBAS
.VECREF
3
U.h5
1
1..56
O1.h5
1
1..5
O2.h5
1
1..5
**END OF
